{"content": [{"id": "40349ad4-1e7b-4668-984d-0b0ea39f9bb3", "createdAt": "2020-09-10T17:46:54.094552Z", "createdBy": "mmonce@vmware.com", "updatedAt": "2020-09-11T15:18:21.704377Z", "updatedBy": "mmonce@vmware.com", "orgId": "cc1c944f-e20d-42fb-972c-7277066eba49", "projectId": "152f5f3c-d225-44db-b9d1-4053ad7869b3", "projectName": "Rainpole Multi-Cloud Developer Access", "selfLink": "/blueprint/api/blueprints/40349ad4-1e7b-4668-984d-0b0ea39f9bb3", "name": "New VM Template", "description": "", "status": "DRAFT", "valid": true, "validationMessages": [], "totalVersions": 3, "totalReleasedVersions": 1, "requestScopeOrg": true, "contentSourceSyncMessages": []}, {"id": "f832cf53-294e-4213-ada0-d06302423731", "createdAt": "2020-07-31T15:32:26.147897Z", "createdBy": "jlemmon@vmware.com", "updatedAt": "2020-09-10T13:58:36.789961Z", "updatedBy": "jlemmon@vmware.com", "orgId": "cc1c944f-e20d-42fb-972c-7277066eba49", "projectId": "8bb84a1d-52c5-494b-b680-ad073367c896", "projectName": "JL-Sandbox", "selfLink": "/blueprint/api/blueprints/f832cf53-294e-4213-ada0-d06302423731", "name": "JL-Sandbox-Multicloud", "description": "Simple template for deploying 1..n servers behind a cloud-agnostic load balancer.  \n", "status": "DRAFT", "valid": true, "validationMessages": [], "totalVersions": 3, "totalReleasedVersions": 1, "requestScopeOrg": false, "contentSourceSyncMessages": []}, {"id": "4a7dae39-f4d3-47b7-9b43-e9d5480b3b10", "createdAt": "2020-09-09T02:46:50.568445Z", "createdBy": "mmonce@vmware.com", "updatedAt": "2020-09-09T02:57:38.563942Z", "updatedBy": "mmonce@vmware.com", "orgId": "cc1c944f-e20d-42fb-972c-7277066eba49", "projectId": "152f5f3c-d225-44db-b9d1-4053ad7869b3", "projectName": "Rainpole Multi-Cloud Developer Access", "selfLink": "/blueprint/api/blueprints/4a7dae39-f4d3-47b7-9b43-e9d5480b3b10", "name": "MMTF3", "description": "", "status": "DRAFT", "valid": true, "validationMessages": [], "totalVersions": 0, "totalReleasedVersions": 0, "requestScopeOrg": false, "contentSourceSyncMessages": []}, {"id": "e1c35e5a-2561-4e5e-8222-4e190685505b", "createdAt": "2020-09-09T01:38:29.372853Z", "createdBy": "mmonce@vmware.com", "updatedAt": "2020-09-09T02:44:32.334382Z", "updatedBy": "mmonce@vmware.com", "orgId": "cc1c944f-e20d-42fb-972c-7277066eba49", "projectId": "152f5f3c-d225-44db-b9d1-4053ad7869b3", "projectName": "Rainpole Multi-Cloud Developer Access", "selfLink": "/blueprint/api/blueprints/e1c35e5a-2561-4e5e-8222-4e190685505b", "name": "TF Test 2", "description": "", "status": "DRAFT", "valid": true, "validationMessages": [], "totalVersions": 0, "totalReleasedVersions": 0, "requestScopeOrg": false, "contentSourceSyncMessages": []}, {"id": "bd3f9dd2-4d96-4fa4-96fe-aedd71fd25d5", "createdAt": "2020-09-03T20:22:16.283295Z", "createdBy": "mmonce@vmware.com", "updatedAt": "2020-09-08T19:52:32.326944Z", "updatedBy": "prydin@vmware.com", "orgId": "cc1c944f-e20d-42fb-972c-7277066eba49", "projectId": "152f5f3c-d225-44db-b9d1-4053ad7869b3", "projectName": "Rainpole Multi-Cloud Developer Access", "selfLink": "/blueprint/api/blueprints/bd3f9dd2-4d96-4fa4-96fe-aedd71fd25d5", "name": "MM-AWS-nginx-TF", "description": "", "status": "DRAFT", "valid": true, "validationMessages": [], "totalVersions": 0, "totalReleasedVersions": 0, "requestScopeOrg": false, "contentSourceSyncMessages": []}, {"id": "7d30f27f-15cd-407f-83cf-f4881886aecc", "createdAt": "2020-09-08T19:01:52.768204Z", "createdBy": "mmonce@vmware.com", "updatedAt": "2020-09-08T19:01:52.768204Z", "updatedBy": "mmonce@vmware.com", "orgId": "cc1c944f-e20d-42fb-972c-7277066eba49", "projectId": "152f5f3c-d225-44db-b9d1-4053ad7869b3", "projectName": "Rainpole Multi-Cloud Developer Access", "selfLink": "/blueprint/api/blueprints/7d30f27f-15cd-407f-83cf-f4881886aecc", "name": "VPC Test", "description": "", "status": "DRAFT", "valid": true, "validationMessages": [], "totalVersions": 0, "totalReleasedVersions": 0, "requestScopeOrg": false, "contentSourceSyncMessages": []}, {"id": "33c9d3b2-8788-473d-bf69-7faa8569c911", "createdAt": "2019-06-28T05:31:37.502Z", "createdBy": "system-user", "updatedAt": "2020-09-02T19:54:03.877068Z", "updatedBy": "mmonce@vmware.com", "orgId": "cc1c944f-e20d-42fb-972c-7277066eba49", "projectId": "152f5f3c-d225-44db-b9d1-4053ad7869b3", "projectName": "Rainpole Multi-Cloud Developer Access", "selfLink": "/blueprint/api/blueprints/33c9d3b2-8788-473d-bf69-7faa8569c911", "name": "Azure VM + Redis", "status": "DRAFT", "valid": true, "validationMessages": [], "totalVersions": 1, "totalReleasedVersions": 0, "requestScopeOrg": false, "contentSourceId": "0ce43db9-4568-45fb-87b5-75a5879a465e", "contentSourcePath": "Azure VM + Redis Cache/blueprint.yaml", "contentSourceType": "com.github.saas", "contentSourceSyncStatus": "SUCCESSFUL", "contentSourceSyncMessages": ["New draft, version(s) created", "Draft blueprint created from git commit id b3895430aaae387f2843c87d344f5c2033c1b7e2.", "Draft blueprint updated and version 1 created from git commit id b3895430aaae387f2843c87d344f5c2033c1b7e2."], "contentSourceSyncAt": "2019-06-28T05:31:37.504Z"}, {"id": "113baf26-8c4d-4df1-8b85-6b62d4eeb860", "createdAt": "2020-08-10T23:00:43.533167Z", "createdBy": "jlemmon@vmware.com", "updatedAt": "2020-08-26T13:35:37.390584Z", "updatedBy": "jlemmon@vmware.com", "orgId": "cc1c944f-e20d-42fb-972c-7277066eba49", "projectId": "8bb84a1d-52c5-494b-b680-ad073367c896", "projectName": "JL-Sandbox", "selfLink": "/blueprint/api/blueprints/113baf26-8c4d-4df1-8b85-6b62d4eeb860", "name": "Basic EC2 Docker Host", "description": "", "status": "DRAFT", "valid": true, "validationMessages": [], "totalVersions": 4, "totalReleasedVersions": 0, "requestScopeOrg": true, "contentSourceSyncMessages": []}, {"id": "d2ba6fe0-3d82-4d03-93ae-556c7ceb89b2", "createdAt": "2020-07-20T22:41:38.346049Z", "createdBy": "mmonce@vmware.com", "updatedAt": "2020-08-25T20:29:57.580020Z", "updatedBy": "mmonce@vmware.com", "orgId": "cc1c944f-e20d-42fb-972c-7277066eba49", "projectId": "152f5f3c-d225-44db-b9d1-4053ad7869b3", "projectName": "Rainpole Multi-Cloud Developer Access", "selfLink": "/blueprint/api/blueprints/d2ba6fe0-3d82-4d03-93ae-556c7ceb89b2", "name": "Ubuntu-Simple", "description": "", "status": "DRAFT", "valid": true, "validationMessages": [], "totalVersions": 3, "totalReleasedVersions": 3, "requestScopeOrg": false, "contentSourceSyncMessages": []}, {"id": "10754ee2-25ec-4071-a93f-9e8fb53b4dde", "createdAt": "2020-08-17T20:56:17.373571Z", "createdBy": "mmonce@vmware.com", "updatedAt": "2020-08-20T20:05:56.547527Z", "updatedBy": "mmonce@vmware.com", "orgId": "cc1c944f-e20d-42fb-972c-7277066eba49", "projectId": "152f5f3c-d225-44db-b9d1-4053ad7869b3", "projectName": "Rainpole Multi-Cloud Developer Access", "selfLink": "/blueprint/api/blueprints/10754ee2-25ec-4071-a93f-9e8fb53b4dde", "name": "Docker Host - Simple", "description": "", "status": "DRAFT", "valid": true, "validationMessages": [], "totalVersions": 3, "totalReleasedVersions": 1, "requestScopeOrg": false, "contentSourceSyncMessages": []}, {"id": "72045c4b-2322-419c-9aa6-f02a622e35c7", "createdAt": "2019-06-26T19:30:23.871Z", "createdBy": "mmonce@vmware.com", "updatedAt": "2020-08-06T02:59:59.826800Z", "updatedBy": "mmonce@vmware.com", "orgId": "cc1c944f-e20d-42fb-972c-7277066eba49", "projectId": "152f5f3c-d225-44db-b9d1-4053ad7869b3", "projectName": "Rainpole Multi-Cloud Developer Access", "selfLink": "/blueprint/api/blueprints/72045c4b-2322-419c-9aa6-f02a622e35c7", "name": "Multi-Tier Web Application on On-Demand VMware NSX-T Virtual Network", "description": "1.0", "status": "DRAFT", "valid": true, "validationMessages": [], "totalVersions": 2, "totalReleasedVersions": 2, "requestScopeOrg": false, "contentSourceSyncMessages": []}, {"id": "c537ed70-6ab0-4e05-a3f0-7580566247d4", "createdAt": "2020-08-05T18:15:24.798803Z", "createdBy": "jlemmon@vmware.com", "updatedAt": "2020-08-05T18:26:07.411052Z", "updatedBy": "jlemmon@vmware.com", "orgId": "cc1c944f-e20d-42fb-972c-7277066eba49", "projectId": "152f5f3c-d225-44db-b9d1-4053ad7869b3", "projectName": "Rainpole Multi-Cloud Developer Access", "selfLink": "/blueprint/api/blueprints/c537ed70-6ab0-4e05-a3f0-7580566247d4", "name": "Dynamic Testing Toolkit", "description": "", "status": "DRAFT", "valid": true, "validationMessages": [], "totalVersions": 0, "totalReleasedVersions": 0, "requestScopeOrg": false, "contentSourceSyncMessages": []}, {"id": "99ecdbb9-7509-48d2-9948-154e8a8b69c4", "createdAt": "2020-02-25T20:49:34.255Z", "createdBy": "mmonce@vmware.com", "updatedAt": "2020-08-05T15:58:56.643155Z", "updatedBy": "jlemmon@vmware.com", "orgId": "cc1c944f-e20d-42fb-972c-7277066eba49", "projectId": "152f5f3c-d225-44db-b9d1-4053ad7869b3", "projectName": "Rainpole Multi-Cloud Developer Access", "selfLink": "/blueprint/api/blueprints/99ecdbb9-7509-48d2-9948-154e8a8b69c4", "name": "Wordpress Basic", "description": "1.0", "status": "DRAFT", "valid": true, "validationMessages": [], "totalVersions": 2, "totalReleasedVersions": 0, "requestScopeOrg": false, "contentSourceSyncMessages": []}, {"id": "48e4c8c7-8bc6-4275-917e-ad335c0fb8dd", "createdAt": "2020-08-04T14:47:11.838368Z", "createdBy": "mmonce@vmware.com", "updatedAt": "2020-08-04T14:47:11.838368Z", "updatedBy": "mmonce@vmware.com", "orgId": "cc1c944f-e20d-42fb-972c-7277066eba49", "projectId": "152f5f3c-d225-44db-b9d1-4053ad7869b3", "projectName": "Rainpole Multi-Cloud Developer Access", "selfLink": "/blueprint/api/blueprints/48e4c8c7-8bc6-4275-917e-ad335c0fb8dd", "name": "Ubuntu Custom Disk", "description": "", "status": "DRAFT", "valid": true, "validationMessages": [], "totalVersions": 2, "totalReleasedVersions": 2, "requestScopeOrg": false, "contentSourceSyncMessages": []}, {"id": "d53d2a28-949b-4aa6-96e5-de162aaa04f9", "createdAt": "2020-07-31T21:11:58.806974Z", "createdBy": "jlemmon@vmware.com", "updatedAt": "2020-07-31T21:12:34.391352Z", "updatedBy": "jlemmon@vmware.com", "orgId": "cc1c944f-e20d-42fb-972c-7277066eba49", "projectId": "8bb84a1d-52c5-494b-b680-ad073367c896", "projectName": "JL-Sandbox", "selfLink": "/blueprint/api/blueprints/d53d2a28-949b-4aa6-96e5-de162aaa04f9", "name": "Sandbox - Single Machine", "description": "", "status": "DRAFT", "valid": true, "validationMessages": [], "totalVersions": 1, "totalReleasedVersions": 0, "requestScopeOrg": false, "contentSourceSyncMessages": []}, {"id": "7bbabc37-2aa0-4d01-8ce2-dc6afc738d3a", "createdAt": "2020-07-31T15:39:11.735329Z", "createdBy": "jlemmon@vmware.com", "updatedAt": "2020-07-31T19:49:46.061680Z", "updatedBy": "jlemmon@vmware.com", "orgId": "cc1c944f-e20d-42fb-972c-7277066eba49", "projectId": "8bb84a1d-52c5-494b-b680-ad073367c896", "projectName": "JL-Sandbox", "selfLink": "/blueprint/api/blueprints/7bbabc37-2aa0-4d01-8ce2-dc6afc738d3a", "name": "JL-Sandbox-RDS-Example", "description": "", "status": "DRAFT", "valid": true, "validationMessages": [], "totalVersions": 3, "totalReleasedVersions": 0, "requestScopeOrg": false, "contentSourceSyncMessages": []}, {"id": "21421b31-14ef-4ea1-ab53-0ec613d2b221", "createdAt": "2019-06-12T07:57:14.109Z", "createdBy": "mmonce@vmware.com", "updatedAt": "2020-07-21T20:45:57.881465Z", "updatedBy": "jlemmon@vmware.com", "orgId": "cc1c944f-e20d-42fb-972c-7277066eba49", "projectId": "152f5f3c-d225-44db-b9d1-4053ad7869b3", "projectName": "Rainpole Multi-Cloud Developer Access", "selfLink": "/blueprint/api/blueprints/21421b31-14ef-4ea1-ab53-0ec613d2b221", "name": "Ubuntu Multi-Cloud", "description": "Multi-cloud deployment for Ubuntu server", "status": "DRAFT", "valid": true, "validationMessages": [], "totalVersions": 4, "totalReleasedVersions": 2, "requestScopeOrg": false, "contentSourceSyncMessages": []}, {"id": "70e6d249-4608-4eb2-9895-cb6d592f558c", "createdAt": "2020-07-21T20:25:16.943827Z", "createdBy": "jlemmon@vmware.com", "updatedAt": "2020-07-21T20:27:58.509566Z", "updatedBy": "jlemmon@vmware.com", "orgId": "cc1c944f-e20d-42fb-972c-7277066eba49", "projectId": "152f5f3c-d225-44db-b9d1-4053ad7869b3", "projectName": "Rainpole Multi-Cloud Developer Access", "selfLink": "/blueprint/api/blueprints/70e6d249-4608-4eb2-9895-cb6d592f558c", "name": "PaaS-Sample", "description": "", "status": "DRAFT", "valid": true, "validationMessages": [], "totalVersions": 0, "totalReleasedVersions": 0, "requestScopeOrg": false, "contentSourceSyncMessages": []}, {"id": "b1a3c317-2c45-4016-8243-3950507150d8", "createdAt": "2020-07-13T22:21:34.757129Z", "createdBy": "jlemmon@vmware.com", "updatedAt": "2020-07-13T22:21:34.757129Z", "updatedBy": "jlemmon@vmware.com", "orgId": "cc1c944f-e20d-42fb-972c-7277066eba49", "projectId": "d29d57f2-0530-47d1-9277-60eed2af3a43", "projectName": "Rainpole Store Operations", "selfLink": "/blueprint/api/blueprints/b1a3c317-2c45-4016-8243-3950507150d8", "name": "MultiCloud-Ops", "description": "", "status": "DRAFT", "valid": true, "validationMessages": [], "totalVersions": 0, "totalReleasedVersions": 0, "requestScopeOrg": false, "contentSourceSyncMessages": []}, {"id": "6b4d7b24-2593-45c4-bd68-415530a1fa1c", "createdAt": "2019-11-18T16:21:23.705Z", "createdBy": "jlemmon@vmware.com", "updatedAt": "2020-04-07T18:56:22.145Z", "updatedBy": "jlemmon@vmware.com", "orgId": "cc1c944f-e20d-42fb-972c-7277066eba49", "projectId": "152f5f3c-d225-44db-b9d1-4053ad7869b3", "projectName": "Rainpole Multi-Cloud Developer Access", "selfLink": "/blueprint/api/blueprints/6b4d7b24-2593-45c4-bd68-415530a1fa1c", "name": "JL_Multicloud-w-LB", "description": "", "status": "DRAFT", "valid": true, "validationMessages": [], "totalVersions": 10, "totalReleasedVersions": 0, "requestScopeOrg": false, "contentSourceSyncMessages": []}], "pageable": {"sort": {"sorted": true, "unsorted": false, "empty": false}, "pageSize": 20, "pageNumber": 0, "offset": 0, "paged": true, "unpaged": false}, "totalPages": 3, "totalElements": 48, "last": false, "first": true, "sort": {"sorted": true, "unsorted": false, "empty": false}, "number": 0, "numberOfElements": 20, "size": 20, "empty": false}